Division,WeightClassKg,Place,Name,Team,BodyweightKg,Best3SquatKg,Best3BenchKg,Best3DeadliftKg,TotalKg,Equipment,Event,Sex
Boys,51.71,1,Matthew Palmer,Bonham,51.26,129.27,70.31,149.69,349.27,Single-ply,SBD,M
Boys,51.71,2,Russell Wilcox,Leonard,50.53,102.06,56.7,131.54,290.3,Single-ply,SBD,M
Boys,51.71,3,Exxon Pantaleon,Krum,50.35,99.79,52.16,131.54,283.5,Single-ply,SBD,M
Boys,51.71,4,Isai Cerrios,Sanger,50.71,97.52,65.77,97.52,260.82,Single-ply,SBD,M
Boys,51.71,5,Marco Hernandez,Bonham,45.81,68.04,40.82,88.45,197.31,Single-ply,SBD,M
Boys,51.71,6,Justin Bilbrey,Howe,51.71,65.77,58.97,63.5,188.24,Single-ply,SBD,M
Boys,59.87,1,Steven Nelson,Pottsboro,55.97,174.63,92.99,170.1,437.72,Single-ply,SBD,M
Boys,55.79,2,Kolby Parker,Pottsboro,55.43,127.01,79.38,117.93,324.32,Single-ply,SBD,M
Boys,55.79,3,Sebastian Guerra,Pilot Point,55.61,127.01,65.77,131.54,324.32,Single-ply,SBD,M
Boys,55.79,4,Erik Torres,Celina,54.16,108.86,74.84,117.93,301.64,Single-ply,SBD,M
Boys,55.79,5,Walter Pyron,Sanger,55.61,99.79,65.77,127.01,292.57,Single-ply,SBD,M
Boys,55.79,6,Jorge Solano,Bonham,52.16,88.45,49.9,120.2,258.55,Single-ply,SBD,M
Boys,55.79,7,Leo Garcia,Bonham,51.98,72.57,43.09,97.52,213.19,Single-ply,SBD,M
Boys,55.79,8,Eliud Gonzales,Bonham,53.71,58.97,34.02,95.25,188.24,Single-ply,SBD,M
Boys,59.87,1,Jonathan Juarez,Celina,59.87,154.22,83.91,181.44,419.57,Single-ply,SBD,M
Boys,59.87,2,Gio Soto,Leonard,59.87,129.27,81.65,138.35,349.27,Single-ply,SBD,M
Boys,59.87,3,Austin Caldwell,Callisburg,57.7,124.74,58.97,136.08,319.78,Single-ply,SBD,M
Boys,67.13,4,Justin Keeton,Anna,59.96,102.06,68.04,136.08,306.17,Single-ply,SBD,M
Boys,59.87,5,Tyler Williams,Aubrey,57.33,115.67,61.23,122.47,299.37,Single-ply,SBD,M
Boys,59.87,6,Roy Riggins,Van Alstyne,57.61,106.59,58.97,111.13,276.69,Single-ply,SBD,M
Boys,59.87,7,Stormy Box,Pilot Point,59.87,,86.18,151.95,238.14,Single-ply,BD,M
Boys,59.87,DQ,Scott Crum,Anna,57.97,106.59,49.9,,,Single-ply,SBD,M
Boys,74.84,1,Garrett Seifert,Pottsboro,67.31,192.78,117.93,201.85,512.56,Single-ply,SBD,M
Boys,67.13,2,Dylan Serna,Krum,66.32,197.31,113.4,190.51,501.22,Single-ply,SBD,M
Boys,67.13,3,Eric Rodriguez,Aubrey,65.59,188.24,97.52,192.78,478.54,Single-ply,SBD,M
Boys,67.13,4,Stephen Steele,Pottsboro,65.23,181.44,106.59,172.37,460.4,Single-ply,SBD,M
Boys,67.13,5,Spencer Tilley,Pilot Point,65.41,176.9,108.86,174.63,460.4,Single-ply,SBD,M
Boys,67.13,6,Will Carter,Sanger,62.96,167.83,99.79,185.97,453.59,Single-ply,SBD,M
Boys,67.13,7,Juan Llamas,Celina,60.87,174.63,111.13,151.95,437.72,Single-ply,SBD,M
Boys,67.13,8,Kyle Garner,Gunter,66.32,161.03,102.06,170.1,433.18,Single-ply,SBD,M
Boys,74.84,9,Austin Vaden,Celina,67.22,167.83,92.99,165.56,426.38,Single-ply,SBD,M
Boys,67.13,10,Ian Concepcion,Krum,62.32,170.1,77.11,174.63,421.84,Single-ply,SBD,M
Boys,74.84,11,Kyle Rhinehart,Celina,67.31,161.03,92.99,154.22,408.23,Single-ply,SBD,M
Boys,67.13,12,Ramon Fierro,Howe,65.68,154.22,77.11,170.1,401.43,Single-ply,SBD,M
Boys,67.13,13,Clayton Stringer,Whitesboro,65.59,147.42,79.38,167.83,394.63,Single-ply,SBD,M
Boys,67.13,14,Jacob Kemp,Bonham,60.33,138.35,74.84,154.22,367.41,Single-ply,SBD,M
Boys,67.13,15,Romario Hernandez,Krum,64.77,136.08,68.04,136.08,340.19,Single-ply,SBD,M
Boys,67.13,16,Ty Watson,Howe,62.87,113.4,81.65,138.35,333.39,Single-ply,SBD,M
Boys,67.13,17,Brent Hicks,Leonard,61.96,117.93,63.5,145.15,326.59,Single-ply,SBD,M
Boys,67.13,18,Regan Murphy,Celina,63.23,124.74,74.84,124.74,324.32,Single-ply,SBD,M
Boys,67.13,19,Tuff Shoes,Whitewright,60.96,99.79,61.23,113.4,274.42,Single-ply,SBD,M
Boys,67.13,20,Cj Isley,Whitewright,66.86,129.27,,136.08,265.35,Single-ply,SD,M
Boys,67.13,21,Tristan Coglan,Bells,62.51,,72.57,142.88,215.46,Single-ply,BD,M
Boys,67.13,22,Jorge Alvarado,Gainesville,63.05,136.08,72.57,,208.65,Single-ply,SB,M
Boys,67.13,DQ,Mason Thompson,Whitewright,64.95,,,,,Single-ply,SB,M
Boys,67.13,DQ,Jordan Smith #7,Bonham,65.68,197.31,90.72,213.19,,Single-ply,SBD,M
Boys,74.84,1,Adrian Guay,Sanger,72.85,217.72,113.4,217.72,548.85,Single-ply,SBD,M
Boys,74.84,2,Daniel Grubbs,Collinsville,72.57,183.7,127.01,201.85,512.56,Single-ply,SBD,M
Boys,74.84,3,James Jackson #4,Callisburg,73.66,170.1,129.27,204.12,503.49,Single-ply,SBD,M
Boys,74.84,4,Jarrell Washington,Leonard,69.13,174.63,106.59,188.24,469.47,Single-ply,SBD,M
Boys,74.84,5,Chris Rhinehart,Celina,74.21,181.44,90.72,165.56,437.72,Single-ply,SBD,M
Boys,74.84,6,Joaquin Lopez,Howe,68.49,170.1,92.99,167.83,430.91,Single-ply,SBD,M
Boys,74.84,7,Aaron Decker,Whitewright,69.4,149.69,104.33,165.56,419.57,Single-ply,SBD,M
Boys,74.84,8,Hunter Hall,Gainesville,70.31,170.1,83.91,165.56,419.57,Single-ply,SBD,M
Boys,74.84,9,Elijah Walker,Lindsay,74.57,158.76,102.06,142.88,403.7,Single-ply,SBD,M
Boys,74.84,10,Jarrett Wilson,Pilot Point,72.48,154.22,122.47,111.13,387.82,Single-ply,SBD,M
Boys,74.84,11,Jody Price,Callisburg,71.03,147.42,77.11,158.76,383.29,Single-ply,SBD,M
Boys,74.84,12,Chase Pinion,Anna,73.39,124.74,90.72,147.42,362.87,Single-ply,SBD,M
Boys,74.84,13,Dean Kane,Krum,70.85,129.27,79.38,151.95,360.61,Single-ply,SBD,M
Boys,74.84,14,Garrett McLean,Bells,74.84,138.35,65.77,145.15,349.27,Single-ply,SBD,M
Boys,74.84,15,Brady Smith,Howe,69.94,111.13,83.91,149.69,344.73,Single-ply,SBD,M
Boys,74.84,16,Brandon Price,Pilot Point,69.94,131.54,74.84,133.81,340.19,Single-ply,SBD,M
Boys,74.84,17,Walker Copeland,Leonard,73.84,122.47,79.38,138.35,340.19,Single-ply,SBD,M
Boys,82.1,18,Scott Prescher,Valley View,74.93,174.63,,163.29,337.93,Single-ply,SD,M
Boys,74.84,19,Ethan Mitchell,Whitewright,71.85,113.4,81.65,122.47,317.51,Single-ply,SBD,M
Boys,74.84,20,Nate Walterschied,Krum,73.3,113.4,54.43,129.27,297.1,Single-ply,SBD,M
Boys,74.84,21,Clark Sulivant,Sadler S & S Cons,73.3,88.45,61.23,140.61,290.3,Single-ply,SBD,M
Boys,74.84,22,Craig Wood,Whitewright,73.3,,95.25,158.76,254.01,Single-ply,BD,M
Boys,74.84,23,Eli Thomas #2,Pottsboro,73.21,102.06,52.16,83.91,238.14,Single-ply,SBD,M
Boys,74.84,24,Anthony Jordan,Pottsboro,74.21,90.72,54.43,92.99,238.14,Single-ply,SBD,M
Boys,82.1,1,Jesus Vargas,Celina,79.92,226.8,154.22,238.14,619.15,Single-ply,SBD,M
Boys,82.1,2,Dustin Richards,Krum,76.93,181.44,99.79,204.12,485.34,Single-ply,SBD,M
Boys,82.1,3,Luis Erives,Sadler S & S Cons,81.65,165.56,113.4,204.12,483.08,Single-ply,SBD,M
Boys,82.1,4,John Eskue,Sanger,77.75,165.56,115.67,195.04,476.27,Single-ply,SBD,M
Boys,82.1,5,Dexter Loza,Aubrey,78.83,181.44,136.08,158.76,476.27,Single-ply,SBD,M
Boys,82.1,6,Brice Chaney,Whitesboro,75.11,174.63,97.52,199.58,471.74,Single-ply,SBD,M
Boys,82.1,7,Sean Kyle,Anna,80.01,195.04,113.4,163.29,471.74,Single-ply,SBD,M
Boys,82.1,8,Jon Groff,Pilot Point,81.56,181.44,131.54,158.76,471.74,Single-ply,SBD,M
Boys,89.81,9,Dakota Tinney,Callisburg,82.19,167.83,113.4,181.44,462.66,Single-ply,SBD,M
Boys,82.1,10,Jacobi Verdin,Sanger,80.83,185.97,95.25,163.29,444.52,Single-ply,SBD,M
Boys,82.1,11,Kenton Manis,Bonham,79.74,176.9,81.65,183.7,442.25,Single-ply,SBD,M
Boys,82.1,12,Adam Berryman,Gainesville,78.02,204.12,,215.46,419.57,Single-ply,SD,M
Boys,82.1,13,Clay McKenzie,Callisburg,79.47,172.37,,215.46,387.82,Single-ply,SD,M
Boys,82.1,13,Dalton Scott,Pilot Point,77.84,170.1,102.06,136.08,408.23,Single-ply,SBD,M
Boys,82.1,14,Nick Rose,Lindsay,80.74,127.01,104.33,176.9,408.23,Single-ply,SBD,M
Boys,82.1,15,Ruben Cano,Whitewright,77.11,147.42,88.45,151.95,387.82,Single-ply,SBD,M
Boys,82.1,16,Sam Heath,Aubrey,78.38,145.15,90.72,147.42,383.29,Single-ply,SBD,M
Boys,89.81,17,Bryce Himmelreich,Van Alstyne,82.19,133.81,102.06,138.35,374.21,Single-ply,SBD,M
Boys,82.1,18,Brady Taraba,Whitewright,80.92,136.08,83.91,140.61,360.61,Single-ply,SBD,M
Boys,82.1,19,Phillip Heintze,Whitewright,75.84,127.01,88.45,127.01,342.46,Single-ply,SBD,M
Boys,82.1,20,Ahmed Jabai,Honey Grove,78.29,113.4,90.72,124.74,328.85,Single-ply,SBD,M
Boys,82.1,21,Luis Garcia #3,Callisburg,76.38,163.29,,156.49,319.78,Single-ply,SD,M
Boys,82.1,22,Caleb Hill,Bonham,75.84,158.76,,145.15,303.91,Single-ply,SD,M
Boys,82.1,23,Chris White,Gainesville,79.47,,99.79,165.56,265.35,Single-ply,BD,M
Boys,82.1,24,Atticus Kilcrease,Whitesboro,76.66,61.23,74.84,113.4,249.48,Single-ply,SBD,M
Boys,82.1,25,Garret Blank,Krum,78.11,,,117.93,117.93,Single-ply,D,M
Boys,82.1,DQ,Chance Bratcher,Sadler S & S Cons,81.19,190.51,,,,Single-ply,SD,M
Boys,89.81,1,Dakota Barnes,Bonham,89.18,226.8,106.59,249.48,582.87,Single-ply,SBD,M
Boys,89.81,2,Stryker Hunnicutt,Bonham,88.9,201.85,127.01,226.8,555.65,Single-ply,SBD,M
Boys,89.81,3,Dustin Williams,Anna,84.82,217.72,142.88,192.78,553.38,Single-ply,SBD,M
Boys,89.81,4,Jeffery McClinton,Callisburg,85.73,204.12,102.06,215.46,521.63,Single-ply,SBD,M
Boys,89.81,5,Cameron Litzkow,Van Alstyne,84.1,183.7,124.74,197.31,505.76,Single-ply,SBD,M
Boys,89.81,6,David Luna,Valley View,89.54,185.97,111.13,204.12,501.22,Single-ply,SBD,M
Boys,89.81,7,Derek Shelby,Sanger,86,172.37,136.08,188.24,496.68,Single-ply,SBD,M
Boys,89.81,8,Garrett Lansford,Anna,88.09,204.12,102.06,185.97,492.15,Single-ply,SBD,M
Boys,89.81,9,Arnold Contreras,Leonard,85.64,213.19,108.86,167.83,489.88,Single-ply,SBD,M
Boys,89.81,10,Josh Sanford,Howe,86.73,165.56,99.79,163.29,428.64,Single-ply,SBD,M
Boys,89.81,11,Collin Kilcrease,Whitesboro,82.55,136.08,102.06,165.56,403.7,Single-ply,SBD,M
Boys,89.81,12,Thomas Morales,Whitesboro,84.19,145.15,102.06,154.22,401.43,Single-ply,SBD,M
Boys,89.81,14,Cason Riley,Leonard,86.45,151.95,83.91,142.88,378.75,Single-ply,SBD,M
Boys,89.81,15,Alex Gibbs,Pilot Point,84.19,142.88,74.84,151.95,369.68,Single-ply,SBD,M
Boys,89.81,16,Ryan Montgomery,Whitewright,88.81,120.2,88.45,138.35,347,Single-ply,SBD,M
Boys,89.81,17,Clay Stephens,Bonham,87.45,99.79,63.5,133.81,297.1,Single-ply,SBD,M
Boys,89.81,18,Matthew Norrell,Anna,85.09,102.06,56.7,113.4,272.16,Single-ply,SBD,M
Boys,89.81,DQ,Ruben Garcia,Leonard,86.55,131.54,83.91,145.15,,Single-ply,SBD,M
Boys,99.79,1,Eduardo Webber,Howe,92.35,272.16,149.69,226.8,648.64,Single-ply,SBD,M
Boys,99.79,2,Nick Conklin,Sanger,93.35,235.87,147.42,238.14,621.42,Single-ply,SBD,M
Boys,99.79,3,Justin Lawler,Pottsboro,95.62,204.12,111.13,183.7,498.95,Single-ply,SBD,M
Boys,99.79,4,Adam Neal,Bells,91.53,190.51,131.54,174.63,496.68,Single-ply,SBD,M
Boys,99.79,5,Grant McLean,Bells,90.45,188.24,104.33,188.24,480.81,Single-ply,SBD,M
Boys,99.79,6,Marcus Niz,Van Alstyne,99.25,165.56,138.35,174.63,478.54,Single-ply,SBD,M
Boys,99.79,7,James Kemp,Anna,93.8,174.63,92.99,188.24,455.86,Single-ply,SBD,M
Boys,99.79,8,Logan Smithson,Callisburg,98.61,165.56,99.79,181.44,446.79,Single-ply,SBD,M
Boys,99.79,9,Raymond Taylor,Anna,95.07,181.44,99.79,142.88,424.11,Single-ply,SBD,M
Boys,99.79,10,Jacob Ortaloni,Aubrey,91.53,149.69,83.91,158.76,392.36,Single-ply,SBD,M
Boys,99.79,11,Kris Medlin,Van Alstyne,92.26,163.29,79.38,142.88,385.55,Single-ply,SBD,M
Boys,99.79,12,Tim Edmonds,Pottsboro,97.89,136.08,68.04,136.08,340.19,Single-ply,SBD,M
Boys,99.79,13,Manny Semidey,Van Alstyne,91.81,156.49,,147.42,303.91,Single-ply,SD,M
Boys,99.79,14,Javier Vasquez,Honey Grove,94.8,,90.72,142.88,233.6,Single-ply,BD,M
Boys,99.79,DQ,Tanner Hall,Van Alstyne,98.52,138.35,79.38,,,Single-ply,SBD,M
Boys,99.79,DQ,Shane Tilden,Krum,91.44,154.22,,,,Single-ply,SBD,M
Boys,99.79,DQ,Dylan Coffin,Krum,92.26,181.44,,,,Single-ply,SBD,M
Boys,99.79,DQ,Chance Bledsoe,Krum,98.97,154.22,,142.88,,Single-ply,SBD,M
Boys,99.79,DQ,Jauler Jeramillo,Honey Grove,96.43,,113.4,170.1,,Single-ply,BD,M
Boys,109.77,1,Scott Blair,Anna,102.97,226.8,124.74,224.53,576.06,Single-ply,SBD,M
Boys,109.77,2,Dillon Gage,Sadler S & S Cons,109.32,204.12,161.03,185.97,551.11,Single-ply,SBD,M
Boys,109.77,3,Riley Stottle,Pilot Point,107.41,192.78,151.95,199.58,544.31,Single-ply,SBD,M
Boys,109.77,4,Esteban Martinez,Krum,107.68,201.85,111.13,188.24,501.22,Single-ply,SBD,M
Boys,109.77,5,Billy Doyle,Pottsboro,103.15,192.78,108.86,188.24,489.88,Single-ply,SBD,M
Boys,109.77,6,Dillon Chambers,Sadler S & S Cons,107.41,156.49,86.18,165.56,408.23,Single-ply,SBD,M
Boys,109.77,7,Ethan Lawson,Sadler S & S Cons,105.87,156.49,92.99,145.15,394.63,Single-ply,SBD,M
Boys,109.77,8,Casey Misenheimer,Whitesboro,107.14,142.88,92.99,151.95,387.82,Single-ply,SBD,M
Boys,109.77,9,Colton Richards,Krum,105.6,197.31,95.25,,292.57,Single-ply,SB,M
Boys,124.74,1,Colt Nelson,Sanger,121.38,254.01,167.83,226.8,648.64,Single-ply,SBD,M
Boys,124.74,2,Adam Stapleton,Whitesboro,115.48,219.99,147.42,192.78,560.19,Single-ply,SBD,M
Boys,124.74,3,Jorge Anguiano,Pilot Point,120.66,226.8,147.42,183.7,557.92,Single-ply,SBD,M
Boys,124.74,4,Kyle Scheffler,Sanger,119.66,201.85,142.88,206.38,551.11,Single-ply,SBD,M
Boys,124.74,5,Alex Mayes,Van Alstyne,121.74,183.7,124.74,188.24,496.68,Single-ply,SBD,M
Boys,124.74,6,Jesse Wolfe,Gainesville,122.56,183.7,124.74,188.24,496.68,Single-ply,SBD,M
Boys,124.74,7,Jacob Johnson,Aubrey,113.4,170.1,108.86,195.04,474,Single-ply,SBD,M
Boys,124.74,8,Caleb Mitcheson,Whitesboro,111.58,181.44,97.52,170.1,449.06,Single-ply,SBD,M
Boys,124.74,9,Stephen Slider,Bells,111.4,165.56,102.06,170.1,437.72,Single-ply,SBD,M
Boys,124.74,10,Heber Hernandez,Sadler S & S Cons,112.58,210.92,,226.8,437.72,Single-ply,SD,M
Boys,124.74,11,Weston Osterman,Aubrey,112.13,145.15,,170.1,315.25,Single-ply,SD,M
Boys,124.74,12,Michael Durnberger,Gainesville,115.21,106.59,79.38,102.06,288.03,Single-ply,SBD,M
Boys,124.74,13,Charles King,Valley View,112.58,117.93,,136.08,254.01,Single-ply,SD,M
Boys,124.74,DQ,Steven Rubio,Van Alstyne,115.67,174.63,90.72,,,Single-ply,SBD,M
Boys,124.74+,1,Jacob Barton,Callisburg,126.37,258.55,165.56,238.14,662.24,Single-ply,SBD,M
Boys,124.74+,2,Bryan Townsend,Whitesboro,125.19,240.4,154.22,215.46,610.08,Single-ply,SBD,M
Boys,124.74+,3,Jace Dickson,Whitesboro,129.36,158.76,79.38,136.08,374.21,Single-ply,SBD,M
Boys,124.74+,4,Jacob Halbardier,Whitewright,158.12,138.35,81.65,136.08,356.07,Single-ply,SBD,M
Boys,124.74+,5,Connor Mayes,Van Alstyne,153.95,174.63,,167.83,342.46,Single-ply,SD,M
Boys,124.74+,6,Brian Flowers,Aubrey,147.69,113.4,83.91,142.88,340.19,Single-ply,SBD,M
Boys,124.74+,7,Tj Wiley,Krum,134.35,,79.38,113.4,192.78,Single-ply,BD,M
Boys,124.74+,DQ,Johnathan Clark,Honey Grove,135.71,,,,,Single-ply,BD,M
