Place,Name,Sex,BirthDate,BodyweightKg,Squat1Kg,Squat2Kg,Squat3Kg,Best3SquatKg,Bench1Kg,Bench2Kg,Bench3Kg,Best3BenchKg,Deadlift1Kg,Deadlift2Kg,Deadlift3Kg,Best3DeadliftKg,TotalKg,Division,Equipment,Event
1,Pantea Supanetz,F,1990-01-01,67.7,157.5,165,170,170,105,110,-112.5,110,167.5,172.5,177.5,177.5,457.5,Open,Raw,SBD
2,Ruth Viehauser,F,1988-01-01,62.6,137.5,145,150,150,77.5,85,90,90,160,170,-180,170,410,Open,Raw,SBD
3,Bianca Schieler,F,1986-01-01,82.9,162.5,170,175,175,105,-110,-110,105,180,190,-195,190,470,Open,Raw,SBD
4,Barbara Gapp,F,1981-01-01,55.8,112.5,120,-125,120,60,65,67.5,67.5,180,-200,-200,180,367.5,Open,Raw,SBD
5,Julia Stichenwirth,F,1998-01-01,56.9,115,122.5,127.5,127.5,80,85,87.5,87.5,135,145,150,150,365,Open,Raw,SBD
6,Jelena Bijelic,F,1992-01-01,54.9,105,112.5,117.5,117.5,72.5,-75,75,75,142.5,150,-155,150,342.5,Open,Raw,SBD
7,Sophia Pilwax,F,1999-01-01,60.7,125,132.5,-137.5,132.5,75,82.5,-85,82.5,135,-142.5,,135,350,Open,Raw,SBD
8,Viktoria Marie Haas,F,1995-01-01,74.4,117.5,125,130,130,67.5,72.5,75,75,125,132.5,140,140,345,Open,Raw,SBD
9,Jasmin Fritsche,F,1989-01-01,85.3,125,132.5,140,140,62.5,65,72.5,72.5,130,137.5,145,145,357.5,Open,Raw,SBD
10,Kristina Jagersberger,F,1998-01-01,72.2,105,110,115,115,65,67.5,70,70,125,132.5,-140,132.5,317.5,Open,Raw,SBD
11,Marina Mäding,F,1993-01-01,56.8,102.5,110,117.5,117.5,52.5,55,-57.5,55,92.5,100,-107.5,100,272.5,Open,Raw,SBD
12,Sophie Steiner,F,1999-01-01,64.5,95,102.5,-107.5,102.5,72.5,75,77.5,77.5,100,110,115,115,295,Open,Raw,SBD
13,Stefanie Dröxler,F,1993-01-01,79.9,107.5,115,-122.5,115,52.5,57.5,60,60,135,142.5,-150,142.5,317.5,Open,Raw,SBD
14,Melissa Engel,F,1986-01-01,62.3,75,82.5,87.5,87.5,37.5,42.5,45,45,115,122.5,127.5,127.5,260,Open,Raw,SBD
15,Sajeh Tavassolie,F,1988-01-01,82,80,90,100,100,45,50,60,60,100,115,125,125,285,Open,Raw,SBD
16,Sarah Tomaselli,F,1997-01-01,65.9,80,85,90,90,65,70,-75,70,85,92.5,-100,92.5,252.5,Open,Raw,SBD
17,Francesca Palmiotto,F,1998-01-01,75.1,92.5,97.5,100,100,52.5,57.5,-60,57.5,100,110,-115,110,267.5,Open,Raw,SBD
18,Jasmin Prucha,F,1987-01-01,82.4,-80,85,95,95,47.5,50,-52.5,50,115,125,130,130,275,Open,Raw,SBD
1,René Hofer,M,1997-01-01,91.9,255,-270,270,270,152.5,160,167.5,167.5,295,307.5,310,310,747.5,Open,Raw,SBD
2,Paul Egger,M,1998-01-01,89.7,250,262.5,267.5,267.5,137.5,145,150,150,285,307.5,-319,307.5,725,Open,Raw,SBD
3,Andreas Jandorek,M,1985-01-01,92.5,242.5,257.5,-265,257.5,185,195,-200.5,195,250,260,-272.5,260,712.5,Open,Raw,SBD
4,Ludwig Bachner,M,1998-01-01,111.5,270,287.5,,287.5,170,175,-180,175,300,-312.5,-312.5,300,762.5,Open,Raw,SBD
5,Andreas Polednak,M,1989-01-01,91.4,215,225,235,235,152.5,162.5,165,165,275,292.5,-302.5,292.5,692.5,Open,Raw,SBD
6,John Silva,M,1990-01-01,82,220,230,-240,230,137.5,142.5,,142.5,270,280,-292.5,280,652.5,Open,Raw,SBD
7,Patrick Oberstolz,M,1994-01-01,89.8,230,240,-245,240,152.5,-157.5,-157.5,152.5,265,280,290,290,682.5,Open,Raw,SBD
8,Sascha Westermann,M,1998-01-01,105.6,225,235,247.5,247.5,177.5,185,195,195,250,280,-300,280,722.5,Open,Raw,SBD
9,Julian Franek,M,1994-01-01,85.5,217.5,227.5,232.5,232.5,135,140,142.5,142.5,262.5,275,-282.5,275,650,Open,Raw,SBD
10,Christian Klotz,M,1977-01-01,104.4,235,242.5,250,250,195,202.5,211,211,240,255,-270,255,716,Open,Raw,SBD
11,Jan Simo,M,1987-01-01,73.3,205,215,222.5,222.5,122.5,127.5,-132.5,127.5,240,250,-260.5,250,600,Open,Raw,SBD
12,Daniel Rauschenbach,M,1992-01-01,108.4,235,247.5,260,260,175,185,-195,185,250,270,-290,270,715,Open,Raw,SBD
13,Dominik Fischer,M,2003-01-01,89.2,200,210,217.5,217.5,130,135,140,140,235,250,260,260,617.5,Open,Raw,SBD
14,Bernd Reitbauer,M,1994-01-01,92.6,207.5,217.5,227.5,227.5,140,-147.5,-147.5,140,225,240,250,250,617.5,Open,Raw,SBD
15,Alexander Wöckl,M,1998-01-01,78,190,202.5,-207.5,202.5,125,132.5,140,140,200,220,-227.5,220,562.5,Open,Raw,SBD
16,Mario Poneder,M,1995-01-01,93.5,210,220,-230,220,140,-150,150,150,230,242.5,-247.5,242.5,612.5,Open,Raw,SBD
17,Deniz Topcu,M,1998-01-01,115,240,250,260,260,125,132.5,-140,132.5,240,255,-270,255,647.5,Open,Raw,SBD
18,Martin Hilpert,M,1996-01-01,78.2,185,195,205,205,110,-115,115,115,185,205,217.5,217.5,537.5,Open,Raw,SBD
19,Sascha Fischer,M,1992-01-01,90.6,190,200,212.5,212.5,125,137.5,-145,137.5,200,215,225,225,575,Open,Raw,SBD
20,Hansueli Bicker,M,1979-01-01,82.1,197.5,210,-217.5,210,122.5,127.5,130,130,190,-205,205,205,545,Open,Raw,SBD
21,Julian Tschenett,M,1998-01-01,125.1,220,230,245,245,130,142.5,155,155,245,252.5,-270,252.5,652.5,Open,Raw,SBD
22,Dominic Wetekam,M,1997-01-01,105.9,192.5,210,225,225,132.5,140,145,145,-235,-235,235,235,605,Open,Raw,SBD
23,Philipp Ropele,M,1994-01-01,90.2,175,185,195,195,120,130,-140,130,225,235,-240,235,560,Open,Raw,SBD
24,Florian Höfinger,M,1998-01-01,89.4,160,167.5,172.5,172.5,100,-107.5,-107.5,100,240,252.5,-260,252.5,525,Open,Raw,SBD
25,Philipp Kahr,M,1990-01-01,73.1,145,155,162.5,162.5,112.5,117.5,120,120,175,190,,190,472.5,Open,Raw,SBD
26,Elias Mühlbacher,M,1998-01-01,81.8,135,147.5,155,155,110,120,125,125,200,212.5,220,220,500,Open,Raw,SBD
27,Samuel Mair,M,2000-01-01,101.5,160,170,180,180,115,125,132.5,132.5,225,240,-250,240,552.5,Open,Raw,SBD
28,Jakob Haslinger,M,1997-01-01,72.2,150,165,-172.5,165,115,125,-130,125,170,175,-180,175,465,Open,Raw,SBD
29,Roman Eichenberger,M,1996-01-01,75.3,160,170,-175,170,105,112.5,-115,112.5,180,190,-200,190,472.5,Open,Raw,SBD
30,Andreas Fiedler,M,1994-01-01,106.6,190,200,210,210,115,120,125,125,200,220,-230,220,555,Open,Raw,SBD
31,Uwe Kugler,M,1986-01-01,100.6,170,182.5,190,190,122.5,132.5,137.5,137.5,187.5,205,-215,205,532.5,Open,Raw,SBD
32,Bernhard Gutmayer,M,2002-01-01,73.2,145,155,160,160,87.5,95,-100,95,170,185,-200,185,440,Open,Raw,SBD
33,Manuel Ried,M,2002-01-01,94.5,155,167.5,175,175,115,120,-122.5,120,205,-220,-222.5,205,500,Open,Raw,SBD
34,Niclas Zettergren,M,2001-01-01,91.4,-140,147.5,-165,147.5,105,112.5,-122.5,112.5,200,207.5,-212.5,207.5,467.5,Open,Raw,SBD
35,Markus Lüchinger,M,1988-01-01,127.3,160,170,180,180,127.5,132.5,-140,132.5,190,210,220,220,532.5,Open,Raw,SBD
36,Matthias Graziadei,M,1981-01-01,144,150,170,190,190,-115,115,-120,115,200,230,-270,230,535,Open,Raw,SBD
37,Simon Berchtold,M,1997-01-01,80.8,140,147.5,155,155,80,85,-90,85,157.5,-167.5,-167.5,157.5,397.5,Open,Raw,SBD
