Division,WeightClassKg,Place,Name,Team,BodyweightKg,Best3SquatKg,Best3BenchKg,Best3DeadliftKg,TotalKg,Equipment,Event,Sex,BirthDate
Boys,51.71,1,Zackary Villarreal,Waco Midway,51.35,95.25,49.9,106.59,251.74,Single-ply,SBD,M,
Boys,55.79,1,Nikolas Skinner,Temple,55.7,117.93,79.38,136.08,333.39,Single-ply,SBD,M,
Boys,59.87,1,LeMichael Thompson,Temple,59.87,142.88,95.25,161.03,399.16,Single-ply,SBD,M,
Boys,67.13,1,Jorden Smith,Waco Midway,66.5,156.49,83.91,154.22,394.63,Single-ply,SBD,M,
Boys,74.84,1,Cydric Smith,Temple,73.94,188.24,106.59,215.46,510.29,Single-ply,SBD,M,
Boys,74.84,2,Jer'Vonnie Williams,Temple,74.39,179.17,97.52,179.17,455.86,Single-ply,SBD,M,
Boys,74.84,3,Cody Fishbourne,Temple,73.48,174.63,104.33,170.1,449.06,Single-ply,SBD,M,
Boys,74.84,4,Mason Mills,Temple,72.57,136.08,79.38,145.15,360.61,Single-ply,SBD,M,
Boys,74.84,5,Davis Duncan,Waco Midway,68.4,102.06,56.7,140.61,299.37,Single-ply,SBD,M,
Boys,82.1,1,Samari Howard,Temple,79.38,199.58,115.67,226.8,542.04,Single-ply,SBD,M,
Boys,82.1,2,Jalen Robinson,Temple,79.38,204.12,115.67,174.63,494.42,Single-ply,SBD,M,
Boys,82.1,3,James Kirk,Waco Midway,80.2,170.1,122.47,183.7,476.27,Single-ply,SBD,M,
Boys,82.1,4,Wade Whitney,Waco Midway,80.74,165.56,117.93,156.49,439.98,Single-ply,SBD,M,
Boys,82.1,5,Zion Moore,Temple,80.29,151.95,117.93,163.29,433.18,Single-ply,SBD,M,
Boys,82.1,6,Kaleb Hill,Temple,78.02,154.22,102.06,170.1,426.38,Single-ply,SBD,M,
Boys,82.1,7,Corey Merritt,Waco Midway,81.74,104.33,49.9,113.4,267.62,Single-ply,SBD,M,
Boys,89.81,1,Ke'Andre Smith,Temple,89.81,188.24,104.33,226.8,519.36,Single-ply,SBD,M,
Boys,99.79,1,Frankquan Sauls,Temple,99.34,226.8,136.08,201.85,564.72,Single-ply,SBD,M,
Boys,99.79,2,Curtis Bolden,Waco Midway,90.72,131.54,79.38,151.95,362.87,Single-ply,SBD,M,
Boys,99.79,3,Heath Harris,Waco Midway,93.53,133.81,72.57,154.22,360.61,Single-ply,SBD,M,
Boys,109.77,1,Derek Kunz,Waco Midway,105.96,244.94,133.81,210.92,589.67,Single-ply,SBD,M,
Boys,109.77,2,Ayden Brown,Temple,108.41,183.7,108.86,204.12,496.68,Single-ply,SBD,M,
Boys,109.77,3,Marcus Scott,Temple,108.41,127.01,97.52,167.83,392.36,Single-ply,SBD,M,
Boys,124.74,1,Joseph Labay,Waco Midway,123.92,154.22,86.18,167.83,408.23,Single-ply,SBD,M,
Boys,124.74,2,Seth Martinez,Temple,121.56,142.88,88.45,151.95,383.29,Single-ply,SBD,M,
Boys,139.71,1,Agustin Silva,Temple,128.37,208.65,136.08,215.46,560.19,Single-ply,SBD,M,
Boys,139.71,2,Kooper McCaig-Forbis,Waco Midway,136.35,229.06,124.74,190.51,544.31,Single-ply,SBD,M,
Boys,139.71,3,Endrei Sauls,Temple,129.27,161.03,115.67,183.7,460.4,Single-ply,SBD,M,
