Place,Name,Sex,BirthDate,Age,Country,State,Equipment,Division,BodyweightKg,WeightClassKg,Squat1Kg,Squat2Kg,Squat3Kg,Squat4Kg,Best3SquatKg,Bench1Kg,Bench2Kg,Bench3Kg,Bench4Kg,Best3BenchKg,Deadlift1Kg,Deadlift2Kg,Deadlift3Kg,Deadlift4Kg,Best3DeadliftKg,TotalKg,Event
1,Katia Rios,F,1998-04-18,23,USA,CA,Raw,Juniors 20-23,52.9,56,132.5,-142.5,142.5,,142.5,67.5,72.5,-77.5,,72.5,142.5,-155,155,,155,370,SBD
1,Ana Regla,F,2001-02-09,20,USA,CA,Raw,Juniors 20-23,106.6,90+,132.5,-137.5,145,,145,57.5,-62.5,62.5,,62.5,135,142.5,150,,150,357.5,SBD
1,Katia Rios,F,1998-04-18,23,USA,CA,Raw,Open,52.9,56,132.5,-142.5,142.5,,142.5,67.5,72.5,-77.5,,72.5,142.5,-155,155,,155,370,SBD
1,Meranda Erece,F,1995-04-27,26,USA,CA,Raw,Open,72.7,75,132.5,140,147.5,,147.5,75,77.5,-85,,77.5,130,140,150,,150,375,SBD
2,Danielle Braun,F,1986-06-01,34,USA,AL,Raw,Open,73.5,75,110,120,-127.5,,120,75,82.5,-90,,82.5,132.5,142.5,150,,150,352.5,SBD
1,Arlene Hernandez,F,1992-01-17,29,USA,CA,Raw,Open,139.9,90+,-182.5,182.5,190,,190,137.5,142.5,145,,145,182.5,197.5,207.5,,207.5,542.5,SBD
1,Gabby Rodriguez,F,2002-07-02,18,USA,CA,Raw,Sub-Juniors 17-19,58,60,102.5,112.5,120,,120,50,52.5,55,,55,120,130,135,,135,310,SBD
1,Esmeralda Doyle,F,1985-07-16,35,USA,CA,Wraps,Open,55.9,56,157.5,-172.5,-172.5,,157.5,60,67.5,-72.5,,67.5,140,-157.5,-157.5,,140,365,SBD
DQ,Sophina Cuevas,F,,36,USA,CA,Single-ply,Submasters 35-39,66.6,67.5,137.5,,,,137.5,-95,-105,-105,,,170,187.5,-207.5,,187.5,,SBD
1,Gracie Davis,F,1988-08-15,32,USA,CA,Multi-ply,Open,65,67.5,137.5,147.5,157.5,,157.5,-80,80,-85,,80,130,142.5,155,,155,392.5,SBD
DQ,Sophina Cuevas,F,,36,USA,CA,Single-ply,Submasters 35-39,66.6,67.5,,,,,,-95,-105,-105,,,,,,,,,B
1,Sophina Cuevas,F,,36,USA,CA,Single-ply,Submasters 35-39,66.6,67.5,,,,,,,,,,,170,187.5,-207.5,,187.5,187.5,D
1,Parker Belle,M,1999-07-30,21,USA,CA,Raw,Juniors 20-23,90.5,100,220,237.5,245,,245,185,200,207.5,,207.5,275,290,305,,305,757.5,SBD
2,George Navarro,M,2000-07-20,20,USA,CA,Raw,Juniors 20-23,99.4,100,170,185,200,,200,125,137.5,145,,145,222.5,242.5,257.5,,257.5,602.5,SBD
1,Nicholas Bustos,M,1983-03-12,38,USA,CA,Raw,Submasters 35-39,96.1,100,175,202.5,220,,220,160,170,175,,175,225,255,-272.5,,255,650,SBD
1,Ray Audelo,M,1976-09-24,44,USA,CA,Raw,Masters 40-44,115.9,125,250,272.5,,,272.5,187.5,202.5,-210,,202.5,235,,,,235,710,SBD
1,Adrian Palamos,M,1994-05-24,26,USA,CA,Raw,Open,80.6,82.5,170,185,192.5,,192.5,115,122.5,130,,130,215,230,240,,240,562.5,SBD
2,Joshua Zaragoza,M,1994-09-02,26,USA,CA,Raw,Open,78.6,82.5,162.5,175,185,,185,110,115,117.5,,117.5,205,227.5,235,,235,537.5,SBD
1,Gabriel J. Robles,M,1995-10-23,25,USA,AL,Raw,Open,89.7,90,-265,275,280,,280,152.5,165,-170,,165,277.5,290,-300,,290,735,SBD
2,Alexander Minnis,M,1994-11-14,26,USA,CA,Raw,Open,85.5,90,200,212.5,-222.5,,212.5,125,132.5,137.5,,137.5,290,305,-315,,305,655,SBD
3,Joseph Grinstain,M,1994-08-01,26,USA,CA,Raw,Open,89.3,90,185,192.5,200,,200,142.5,147.5,-150,,147.5,212.5,227.5,240,,240,587.5,SBD
1,Parker Belle,M,1999-07-30,21,USA,CA,Raw,Open,90.5,100,220,237.5,245,,245,185,200,207.5,,207.5,275,290,305,,305,757.5,SBD
2,Diego Munoz,M,1991-02-17,30,USA,AL,Raw,Open,97.5,100,227.5,237.5,250,,250,152.5,160,-170,,160,265,285,-300,,285,695,SBD
3,Raymond Santiago,M,1994-12-14,26,USA,CA,Raw,Open,99.8,100,182.5,192.5,205,,205,120,130,135,,135,227.5,-250,265,,265,605,SBD
1,Duke Fanning,M,1993-05-25,27,USA,CA,Raw,Open,107.2,110,227.5,-235,-235,,227.5,170,-177.5,-177.5,,170,245,255,-260,,255,652.5,SBD
2,Epifanio Solano,M,1992-04-21,29,USA,CA,Raw,Open,108.4,110,185,200,212.5,,212.5,142.5,155,-160,,155,217.5,235,245,,245,612.5,SBD
1,Daniel Martin #1,M,1990-06-24,30,USA,CA,Raw,Open,118.4,125,260,277.5,295,,295,210,225,235,,235,-295,295,325,,325,855,SBD
2,Ray Audelo,M,1976-09-24,44,USA,CA,Raw,Open,115.9,125,250,272.5,,,272.5,187.5,202.5,-210,,202.5,235,,,,235,710,SBD
DQ,Andrew DeSesa,M,1993-09-06,27,USA,CA,Raw,Open,122.7,125,-250,-250,-250,,,152.5,157.5,-162.5,,157.5,250,262.5,277.5,,277.5,,SBD
1,Adrian Arvizu,M,1988-09-24,32,USA,CA,Raw,Open,138.8,140,235,255,280,,280,175,187.5,195,,195,295,317.5,-330,,317.5,792.5,SBD
2,Christopher Davis,M,1990-05-22,30,USA,CA,Raw,Open,139,140,245,260,280,,280,190,215,-227.5,,215,225,255,275,,275,770,SBD
1,Jayden Sumbillo,M,2002-12-02,18,USA,CA,Raw,Sub-Juniors 17-19,70,75,137.5,145,-152.5,,145,72.5,-82.5,-82.5,,72.5,150,162.5,172.5,,172.5,390,SBD
1,Michael Salcedo,M,2002-06-15,18,USA,CA,Raw,Sub-Juniors 17-19,137.9,140,205,222.5,232.5,,232.5,140,157.5,167.5,,167.5,220,235,242.5,,242.5,642.5,SBD
DQ,Chase Pennycuff,M,1997-08-12,23,USA,CA,Wraps,Juniors 20-23,120,125,272.5,280,-285,,280,182.5,-190,190,,190,-295,-295,,,,,SBD
1,Gerald Dionio,M,,27,,,Wraps,Open,67.5,67.5,245,-265,265,,265,160,172.5,-182.5,,172.5,275,290,302.5,-312.5,302.5,740,SBD
1,Cory Dutra,M,1989-12-18,31,USA,CA,Wraps,Open,74.2,75,140,150,160,,160,107.5,115,122.5,,122.5,180,192.5,-207.5,,192.5,475,SBD
1,Kyle Bilharz,M,1990-03-01,31,USA,CA,Wraps,Open,94,100,262.5,272.5,277.5,,277.5,147.5,157.5,-165,,157.5,275,-292.5,292.5,,292.5,727.5,SBD
1,Rocky Ruiz,M,1991-12-11,29,USA,CA,Wraps,Open,108.8,110,342.5,-352.5,-352.5,,342.5,260,272.5,,,272.5,-305,305,,,305,920,SBD
1,Adrien Llanes,M,1993-08-16,27,USA,CA,Wraps,Open,112.9,125,237.5,255,-272.5,,255,140,152.5,-160,,152.5,-230,-230,230,,230,637.5,SBD
2,Gustavo Gutierrez-Prado,M,1997-04-09,24,USA,AL,Wraps,Open,114,125,-230,230,-247.5,,230,110,115,127.5,,127.5,227.5,245,265,,265,622.5,SBD
DQ,Chase Pennycuff,M,1997-08-12,23,USA,CA,Wraps,Open,120,125,272.5,280,-285,,280,182.5,-190,190,,190,-295,-295,,,,,SBD
1,Zachary Langdon,M,1989-07-17,31,USA,CA,Wraps,Open,145.4,140+,-312.5,327.5,342.5,,342.5,-207.5,207.5,217.5,,217.5,337.5,347.5,-355,,347.5,907.5,SBD
1,Jacob Cagliero,M,1999-04-02,22,USA,CA,Multi-ply,Juniors 20-23,73.2,75,230,250,-270,,250,145,-162.5,-162.5,,145,-207.5,207.5,-225,,207.5,602.5,SBD
1,Jake Domer,M,2001-02-07,20,USA,CA,Multi-ply,Juniors 20-23,86.3,90,-250,-250,250,,250,-182.5,187.5,-200,,187.5,195,200,215,,215,652.5,SBD
1,Jacob Cagliero,M,1999-04-02,22,USA,CA,Multi-ply,Open,73.2,75,230,250,-270,,250,145,-162.5,-162.5,,145,-207.5,207.5,-225,,207.5,602.5,SBD
1,Carlos Ramirez #7,M,1997-03-24,24,USA,CA,Multi-ply,Open,88.2,90,292.5,310,317.5,320,317.5,-220,227.5,235,240,235,245,272.5,277.5,295,277.5,830,SBD
2,Jake Domer,M,2001-02-07,20,USA,CA,Multi-ply,Open,86.3,90,-250,-250,250,,250,-182.5,187.5,-200,,187.5,195,200,215,,215,652.5,SBD
1,Jay Boling,M,1997-04-19,24,USA,CA,Multi-ply,Open,98.7,100,230,-250,-250,,230,165,-182.5,182.5,,182.5,207.5,227.5,-242.5,,227.5,640,SBD
1,Marcus Rodholm,M,1996-05-23,24,USA,TX,Multi-ply,Open,103.6,110,245,272.5,-295,,272.5,185,-200,-200,,185,-225,260,-272.5,,260,717.5,SBD
1,John Schwoerer,M,2001-06-19,19,USA,CA,Multi-ply,Sub-Juniors 17-19,97.2,100,250,-272.5,-272.5,,250,172.5,-182.5,-182.5,,172.5,217.5,230,237.5,,237.5,660,SBD
1,Howard Winegarden,M,1965-02-09,56,USA,CA,Unlimited,Masters 55-59,117.5,125,-292.5,292.5,,,292.5,280,,,,280,232.5,,,,232.5,805,SBD
1,Maksym Medvid,M,1988-03-24,33,Ukraine,,Raw,Open,99.5,100,,,,,,-190,195,-200,,195,,,,,,195,B
1,Channing Doyle,M,1987-10-28,33,USA,CA,Raw,Open,89.8,90,,,,,,180,195,,,195,,,,,,195,B
1,Pete Giannopoulos,M,1984-06-20,36,USA,CA,Single-ply,Submasters 35-39,83.5,90,,,,,,182.5,192.5,-202.5,,192.5,,,,,,192.5,B
1,Carlos Ramirez #7,M,1997-03-24,24,USA,CA,Multi-ply,Open,88.2,90,,,,,,-220,227.5,235,240,235,,,,,,235,B
1,Jay Boling,M,1997-04-19,24,USA,CA,Multi-ply,Open,98.7,100,,,,,,165,-182.5,182.5,,182.5,,,,,,182.5,B
1,Michael Jakel,M,1994-11-25,26,USA,CA,Multi-ply,Open,106.5,110,,,,,,-182.5,-192.5,200,,200,,,,,,200,B
1,Ben Bradley,M,1990-07-09,30,USA,CA,Multi-ply,Open,124.3,125,,,,,,-160,160,-182.5,,160,,,,,,160,B
1,Alexander Minnis,M,1994-11-14,26,USA,CA,Raw,Open,85.5,90,,,,,,,,,,,290,305,-315,,305,305,D
1,Channing Doyle,M,1987-10-28,33,USA,CA,Raw,Open,89.8,90,,,,,,,,,,,300,327.5,,,327.5,327.5,D
