Division,WeightClassKg,Place,Name,Team,BodyweightKg,Best3SquatKg,Best3BenchKg,Best3DeadliftKg,TotalKg,Equipment,Event,Sex
Boys,51.71,1,Cody Henson,Abernathy,49.71,131.54,61.23,142.88,335.66,Single-ply,SBD,M
Boys,51.71,2,Caleb Rei Martinez,Brownfield,40.46,61.23,36.29,70.31,167.83,Single-ply,SBD,M
Boys,55.79,1,Carlos Rodriguez #1,Olton,55.34,158.76,79.38,154.22,392.36,Single-ply,SBD,M
Boys,55.79,2,Juan Yebra,Olton,54.7,120.2,79.38,145.15,344.73,Single-ply,SBD,M
Boys,55.79,3,Alfredo Lozano,Brownfield,54.88,120.2,63.5,147.42,331.12,Single-ply,SBD,M
Boys,55.79,4,Zach Gilbert,Lubbock Roosevelt,55.07,117.93,77.11,136.08,331.12,Single-ply,SBD,M
Boys,55.79,5,Jose Perez #6,Sundown,54.7,106.59,61.23,136.08,303.91,Single-ply,SBD,M
Boys,55.79,6,Truman Richerson,Abernathy,52.8,97.52,61.23,104.33,263.08,Single-ply,SBD,M
Boys,55.79,7,Sheldon Jacquez,Brownfield,51.89,92.99,54.43,111.13,258.55,Single-ply,SBD,M
Boys,59.87,1,JD Rojas,Lubbock Roosevelt,59.69,172.37,117.93,190.51,480.81,Single-ply,SBD,M
Boys,59.87,2,Cade Conway,Sundown,59.51,147.42,79.38,133.81,360.61,Single-ply,SBD,M
Boys,59.87,3,Brandon Ureste,Abernathy,58.42,111.13,72.57,133.81,317.51,Single-ply,SBD,M
Boys,59.87,4,Jakeum DeLaCruz,Abernathy,56.06,99.79,61.23,102.06,263.08,Single-ply,SBD,M
Boys,67.13,1,Isaac Hernandez,Sundown,65.23,161.03,90.72,167.83,419.57,Single-ply,SBD,M
Boys,67.13,2,Zach Ponciano,Abernathy,66.04,161.03,90.72,156.49,408.23,Single-ply,SBD,M
Boys,67.13,3,Jesus Garza,Brownfield,65.68,136.08,88.45,136.08,360.61,Single-ply,SBD,M
Boys,67.13,4,George Flores,Abernathy,66.5,127.01,92.99,136.08,356.07,Single-ply,SBD,M
Boys,67.13,5,Stephen Calcote,Lubbock Roosevelt,63.32,136.08,72.57,136.08,344.73,Single-ply,SBD,M
Boys,67.13,6,J-Lee Moreno,Abernathy,61.14,131.54,68.04,131.54,331.12,Single-ply,SBD,M
Boys,67.13,7,Daniel Aguirre,Abernathy,63.14,122.47,81.65,124.74,328.85,Single-ply,SBD,M
Boys,67.13,8,Michael Trevino,Abernathy,66.5,124.74,63.5,131.54,319.78,Single-ply,SBD,M
Boys,67.13,9,Eli Samarron,Sundown,60.69,113.4,65.77,124.74,303.91,Single-ply,SBD,M
Boys,67.13,10,Richard Vasquez,Lubbock Roosevelt,62.51,106.59,72.57,120.2,299.37,Single-ply,SBD,M
Boys,67.13,DQ,Peyton Lowdermilk,Tahoka,63.5,129.27,74.84,,,Single-ply,SBD,M
Boys,74.84,1,Johnny Hernandez,Sundown,67.95,192.78,90.72,195.04,478.54,Single-ply,SBD,M
Boys,74.84,2,Julian Cotto,Tahoka,67.68,149.69,88.45,190.51,428.64,Single-ply,SBD,M
Boys,74.84,3,Alexander Herevia,Tahoka,68.22,158.76,86.18,174.63,419.57,Single-ply,SBD,M
Boys,74.84,4,Matthew Diaz,Tahoka,69.4,154.22,70.31,156.49,381.02,Single-ply,SBD,M
Boys,74.84,5,Dante Flores,Abernathy,69.22,136.08,77.11,151.95,365.14,Single-ply,SBD,M
Boys,74.84,6,Austin Calloway,Abernathy,72.48,136.08,77.11,131.54,344.73,Single-ply,SBD,M
Boys,74.84,7,Miguel Granados,Tahoka,72.85,120.2,52.16,111.13,283.5,Single-ply,SBD,M
Boys,74.84,8,Mason Walker,Tahoka,72.85,86.18,52.16,102.06,240.4,Single-ply,SBD,M
Boys,82.1,1,Link Wilkes,Sundown,81.47,222.26,124.74,240.4,587.4,Single-ply,SBD,M
Boys,82.1,2,Jayton Grisham,Abernathy,81.19,206.38,113.4,197.31,517.1,Single-ply,SBD,M
Boys,82.1,3,Brayden Castillon,Tahoka,77.66,197.31,106.59,199.58,503.49,Single-ply,SBD,M
Boys,82.1,4,Bryce Spencer,Sundown,81.28,172.37,102.06,183.7,458.13,Single-ply,SBD,M
Boys,82.1,5,Teagan Cooksey,Lubbock Roosevelt,76.02,158.76,113.4,181.44,453.59,Single-ply,SBD,M
Boys,82.1,6,Lorenzo Garza,Brownfield,77.56,145.15,90.72,161.03,396.89,Single-ply,SBD,M
Boys,82.1,7,Sergio Guerrero,Olton,79.83,151.95,68.04,147.42,367.41,Single-ply,SBD,M
Boys,82.1,8,Chris Vargas,Tahoka,76.2,129.27,65.77,136.08,331.12,Single-ply,SBD,M
Boys,82.1,9,Dawson Glover,Tahoka,76.48,124.74,61.23,142.88,328.85,Single-ply,SBD,M
Boys,82.1,10,Hayden Rexrode,Abernathy,76.11,63.5,43.09,88.45,195.04,Single-ply,SBD,M
Boys,89.81,1,Ladd Wilkes,Sundown,83.28,226.8,136.08,233.6,596.47,Single-ply,SBD,M
Boys,89.81,2,Jeremy L Hernandez,Sundown,85.55,195.04,97.52,208.65,501.22,Single-ply,SBD,M
Boys,89.81,3,Brody Black,Sundown,84.82,181.44,90.72,167.83,439.98,Single-ply,SBD,M
Boys,89.81,4,Chris Correa,Brownfield,89.72,163.29,90.72,163.29,417.3,Single-ply,SBD,M
Boys,89.81,5,Stephen Cortez,Abernathy,89.09,142.88,83.91,147.42,374.21,Single-ply,SBD,M
Boys,89.81,6,Rafael Vicencio,Brownfield,89.36,127.01,61.23,147.42,335.66,Single-ply,SBD,M
Boys,99.79,1,Isaia Duenes,Lubbock Roosevelt,96.71,206.38,140.61,226.8,573.79,Single-ply,SBD,M
Boys,99.79,2,JR Paiz,Sundown,97.61,213.19,113.4,179.17,505.76,Single-ply,SBD,M
Boys,99.79,3,Michael Muse,Olton,93.44,195.04,113.4,176.9,485.34,Single-ply,SBD,M
Boys,99.79,4,JC Pedroza,Olton,98.97,181.44,102.06,174.63,458.13,Single-ply,SBD,M
Boys,99.79,5,Esaiah Rodriguez,Lubbock Roosevelt,91.53,185.97,111.13,158.76,455.86,Single-ply,SBD,M
Boys,99.79,6,Chandler Shillig,Sundown,96.8,181.44,99.79,172.37,453.59,Single-ply,SBD,M
Boys,99.79,7,Nicodemus Ayala,Tahoka,93.98,163.29,83.91,165.56,412.77,Single-ply,SBD,M
Boys,99.79,8,Blake Harmon,Tahoka,94.89,149.69,92.99,149.69,392.36,Single-ply,SBD,M
Boys,99.79,DQ,Nathan Sullivan,Abernathy,93.08,,,,,Single-ply,SBD,M
Boys,109.77,1,Diego Garcia,Brownfield,106.14,233.6,124.74,226.8,585.13,Single-ply,SBD,M
Boys,109.77,2,Ian Ponce,Abernathy,107.68,244.94,136.08,181.44,562.45,Single-ply,SBD,M
Boys,109.77,3,Ruben Quinonez,Tahoka,103.06,226.8,138.35,167.83,532.97,Single-ply,SBD,M
Boys,109.77,4,Aj Castro,Sundown,109.23,204.12,124.74,188.24,517.1,Single-ply,SBD,M
Boys,109.77,5,EJ Salinas,Abernathy,106.96,199.58,120.2,185.97,505.76,Single-ply,SBD,M
Boys,109.77,6,Andy Casias,Abernathy,105.41,199.58,113.4,190.51,503.49,Single-ply,SBD,M
Boys,109.77,7,Joe Jimenez #2,Brownfield,109.68,188.24,90.72,174.63,453.59,Single-ply,SBD,M
Boys,124.74,1,Jonah Lopez,Abernathy,110.95,222.26,122.47,206.38,551.11,Single-ply,SBD,M
Boys,124.74,2,Corbin Escobedo,Tahoka,116.21,170.1,61.23,181.44,412.77,Single-ply,SBD,M
Boys,124.74+,1,Francisco Saenz,Olton,132.99,249.48,138.35,231.33,619.15,Single-ply,SBD,M
Boys,124.74+,2,Cameron Hastings,Sundown,138.71,199.58,113.4,158.76,471.74,Single-ply,SBD,M
Boys,124.74+,3,Kevin Shoemaker,Lubbock Roosevelt,144.15,181.44,131.54,154.22,467.2,Single-ply,SBD,M
Boys,124.74+,4,Arty Lopez,Abernathy,132.54,156.49,99.79,156.49,412.77,Single-ply,SBD,M
Boys,124.74+,5,Jeffery Davis,Brownfield,139.34,158.76,97.52,124.74,381.02,Single-ply,SBD,M
Boys,124.74+,DQ,Zarrius Bates,Lubbock Roosevelt,143.34,170.1,,,,Single-ply,SBD,M
