Name,WeightClassKg,Division,AgeRange,Sex,Best3SquatKg,Best3BenchKg,Best3DeadliftKg,TotalKg,Event,Equipment,Place
Doug Van Affelen,82.5,M_MEM_1_APF,40-44,M,,195,,195,B,Multi-ply,1
Todd Robinson,82.5,M_MEM_2_APF,45-49,M,,122.5,,122.5,B,Multi-ply,1
N. Diliddo,82.5,M_MEM_7_APF,70-74,M,,87.5,,87.5,B,Multi-ply,1
B. Mendoza,82.5,M_OEM_APF,,M,,197.5,,197.5,B,Multi-ply,1
Doug Van Affelen,82.5,M_OEM_APF,,M,,195,,195,B,Multi-ply,2
Andy Oliver,82.5,M_OEM_APF,,M,,155,,155,B,Multi-ply,3
Todd Robinson,82.5,M_OEM_APF,,M,,122.5,,122.5,B,Multi-ply,4
Roy Erikson,90,M_MEM_5_APF,60-64,M,,135,,135,B,Multi-ply,1
Jody Woods,90,M_MEM_2_APF,45-49,M,,195,,195,B,Multi-ply,1
Jody Woods,90,M_OEM_APF,,M,,195,,195,B,Multi-ply,1
Tyson Orwoll,100,M_JEM_APF,20-23,M,,165,,165,B,Multi-ply,1
Raul Ruiz,100,M_MEM_2_APF,45-49,M,,182.5,,182.5,B,Multi-ply,1
Ruben Arrendondo,100,M_MEM_2_APF,45-49,M,,167.5,,167.5,B,Multi-ply,2
D. Robinson,100,M_MEM_3_APF,50-54,M,,107.5,,107.5,B,Multi-ply,1
Deiderik Lagerwerff,100,M_MEM_5_APF,60-64,M,,130,,130,B,Multi-ply,1
Greg Nolen,110,M_MEM_1_APF,40-44,M,,160,,160,B,Multi-ply,1
Ryan Girard,110,M_OEM_APF,,M,,272.5,,272.5,B,Multi-ply,1
Archie Taylor,110,M_OEM_APF,,M,,190,,190,B,Multi-ply,2
Ted Oneal,110,M_OEM_APF,,M,,,,,B,Multi-ply,DQ
S. Dozier,125,M_OEM_APF,,M,,185,,185,B,Multi-ply,1
Max Tooker,125,M_TEM_2_APF,16-17,M,,155,,155,B,Multi-ply,1
Darrin Guerra,140,M_OEM_APF,,M,,225,,225,B,Multi-ply,1
Art Ramsey,140+,M_MEM_1_APF,40-44,M,,245,,245,B,Multi-ply,1
Jim Sheffield #1,140+,M_MEM_1_APF,40-44,M,,,,,B,Multi-ply,DQ
Art Ramsey,140+,M_OEM_APF,,M,,245,,245,B,Multi-ply,1
Dave Coleman,140+,M_OEM_APF,,M,,210,,210,B,Multi-ply,2
Simon Garcia,140+,M_OEM_APF,,M,,205,,205,B,Multi-ply,3
Chad Aichs,140+,M_OEM_APF,,M,,,,,B,Multi-ply,DQ
Sabra Lucchesi,52,F_OEM_APF,,F,105,77.5,120,302.5,SBD,Multi-ply,1
Gerrie Shapiro,60,F_MEM_3_APF,50-54,F,100,82.5,105,287.5,SBD,Multi-ply,1
Evangeline Keresey,75,F_MEM_5_APF,60-64,F,117.5,50,132.5,300,SBD,Multi-ply,1
Vanesza Farmer,75,F_OEM_APF,,F,125,65,142.5,332.5,SBD,Multi-ply,1
Karen Polansky,90,F_MEM_4_APF,55-59,F,140,77.5,155,372.5,SBD,Multi-ply,1
Helen Pardi,90+,F_MEM_2_APF,45-49,F,,,,,SBD,Multi-ply,DQ
Delia Chilgren,90+,F_MEM_4_APF,55-59,F,65,42.5,105,212.5,SBD,Multi-ply,1
Lisa Baldridge,90+,F_OEM_APF,,F,135,77.5,125,337.5,SBD,Multi-ply,1
Shant Sheklanian,60,M_JEM_APF,20-23,M,140,112.5,177.5,430,SBD,Multi-ply,1
Nori Kawasaki,60,M_MEM_8_APF,75-79,M,137.5,102.5,185,425,SBD,Multi-ply,1
Vince Tanabe,67.5,M_MEM_1_APF,40-44,M,215,120,227.5,562.5,SBD,Multi-ply,1
Jim Oswood,67.5,M_MEM_1_APF,40-44,M,182.5,132.5,192.5,507.5,SBD,Multi-ply,2
Scott Layman,67.5,M_OEM_APF,,M,272.5,175,240,687.5,SBD,Multi-ply,1
B. Burghart,67.5,M_OEM_APF,,M,140,110,155,405,SBD,Multi-ply,2
George Wiltshire,75,M_MEM_1_APF,40-44,M,245,147.5,232.5,625,SBD,Multi-ply,1
George Wiltshire,75,M_OEM_APF,,M,245,147.5,232.5,625,SBD,Multi-ply,1
J. Crites,82.5,M_MEM_4_APF,55-59,M,155,137.5,155,447.5,SBD,Multi-ply,1
Trinity Eriksen,82.5,M_OEM_APF,,M,222.5,147.5,227.5,597.5,SBD,Multi-ply,1
J. Allstadt,82.5,M_OEM_APF,,M,195,137.5,215,547.5,SBD,Multi-ply,2
R. Smith,82.5,M_OEM_APF,,M,207.5,102.5,227.5,537.5,SBD,Multi-ply,3
R. Garcia,82.5,M_TEM_1_APF,13-15,M,75,60,115,250,SBD,Multi-ply,1
C. Mullens,90,M_MEM_1_APF,40-44,M,235,160,235,630,SBD,Multi-ply,1
Freddie Lomelin,90,M_MEM_1_APF,40-44,M,,,,,SBD,Multi-ply,DQ
Jody Woods,90,M_MEM_2_APF,45-49,M,227.5,195,282.5,705,SBD,Multi-ply,1
Steve Vencill,90,M_MEM_3_APF,50-54,M,160,125,182.5,467.5,SBD,Multi-ply,1
Jim Razor,90,M_MEM_3_APF,50-54,M,170,125,160,455,SBD,Multi-ply,2
Mitch Sperling,90,M_MEM_5_APF,60-64,M,222.5,165,207.5,595,SBD,Multi-ply,1
Pete Wilson,90,M_MEM_6_APF,65-69,M,222.5,155,190,567.5,SBD,Multi-ply,1
James Kegrice,90,M_OEM_APF,,M,320,175,292.5,787.5,SBD,Multi-ply,1
John Dorsten,90,M_OEM_APF,,M,282.5,180,290,752.5,SBD,Multi-ply,2
Jody Woods,90,M_OEM_APF,,M,227.5,195,282.5,705,SBD,Multi-ply,3
Joey Mendoza,90,M_OEM_APF,,M,227.5,140,245,612.5,SBD,Multi-ply,4
Erick Graves,90,M_TEM_2_APF,16-17,M,217.5,112.5,210,540,SBD,Multi-ply,1
Mark Straley,100,M_MEM_2_APF,45-49,M,250,165,230,645,SBD,Multi-ply,1
Brad King,100,M_MEM_3_APF,50-54,M,262.5,170,295,727.5,SBD,Multi-ply,1
Lance Rector,100,M_OEM_APF,,M,260,227.5,250,737.5,SBD,Multi-ply,1
Victor Galia,100,M_OEM_APF,,M,237.5,187.5,280,705,SBD,Multi-ply,2
Patrick O'Neal,100,M_OEM_APF,,M,192.5,125,205,522.5,SBD,Multi-ply,3
Cris Cairns,100,M_OEM_APF,,M,157.5,137.5,200,495,SBD,Multi-ply,4
Richard White,110,M_JEM_APF,20-23,M,205,182.5,245,632.5,SBD,Multi-ply,1
Greg Nolen,110,M_MEM_1_APF,40-44,M,255,160,250,665,SBD,Multi-ply,1
Jeff Hayes,110,M_MEM_1_APF,40-44,M,207.5,187.5,257.5,652.5,SBD,Multi-ply,2
A. Rivera,110,M_OEM_APF,,M,265,175,227.5,667.5,SBD,Multi-ply,1
Greg Nolen,110,M_OEM_APF,,M,255,160,250,665,SBD,Multi-ply,2
Ted Oneal,110,M_OEM_APF,,M,,,,,SBD,Multi-ply,DQ
Max Higgans,125,M_JEM_APF,20-23,M,332.5,245,275,852.5,SBD,Multi-ply,1
Mike Moore #2,125,M_MEM_2_APF,45-49,M,292.5,170,285,747.5,SBD,Multi-ply,1
John Ford #1,125,M_MEM_2_APF,45-49,M,,,,,SBD,Multi-ply,DQ
Max Higgans,125,M_OEM_APF,,M,332.5,245,275,852.5,SBD,Multi-ply,1
Val Brenner,125,M_OEM_APF,,M,305,210,295,810,SBD,Multi-ply,2
Andrew Brann,125,M_OEM_APF,,M,285,182.5,290,757.5,SBD,Multi-ply,3
Jesse Burdick,125,M_OEM_APF,,M,272.5,200,230,702.5,SBD,Multi-ply,4
Jimmy Garza,125,M_OEM_APF,,M,267.5,182.5,245,695,SBD,Multi-ply,5
Max Tooker,125,M_TEM_2_APF,16-17,M,242.5,155,227.5,625,SBD,Multi-ply,1
David Tooker,140,M_MEM_1_APF,40-44,M,250,170,262.5,682.5,SBD,Multi-ply,1
Mark Swank,140,M_OEM_APF,,M,330,227.5,305,862.5,SBD,Multi-ply,1
Garrett Harper,140,M_OEM_APF,,M,322.5,230,305,857.5,SBD,Multi-ply,2
Darrin Guerra,140,M_OEM_APF,,M,247.5,225,242.5,715,SBD,Multi-ply,3
Greg Henry,140+,M_OEM_APF,,M,235,175,255,665,SBD,Multi-ply,1
Chad Aichs,140+,M_OEM_APF,,M,,,,,SBD,Multi-ply,DQ
